[
    {
        "name": "id",
        "dbType": "increments",
        "htmlType": "",
        "validations": "",
        "primary": true,
        "searchable": false,
        "fillable": false,
        "inForm": false,
        "inIndex": false
    },
    {
        "name": "client_id",
        "dbType": "integer:unsigned:foreign,clients,id",
        "htmlType": "select,Client:id",
        "relation": "mt1,Client,client_id,id",
        "validations": "required",
        "primary": false,
        "searchable": true,
        "fillable": true,
        "inForm": true,
        "inIndex": true
    },
    {
        "name": "group_id",
        "dbType": "integer:unsigned:foreign,groups,id",
        "htmlType": "select,Group:id",
        "relation": "mt1,Group,group_id,id",
        "validations": "required",
        "primary": false,
        "searchable": true,
        "fillable": true,
        "inForm": true,
        "inIndex": true
    },
    {
        "name": "created_at",
        "dbType": "timestamp",
        "htmlType": "",
        "validations": "",
        "primary": false,
        "searchable": false,
        "fillable": false,
        "inForm": false,
        "inIndex": false
    },
    {
        "name": "updated_at",
        "dbType": "timestamp",
        "htmlType": "",
        "validations": "",
        "primary": false,
        "searchable": false,
        "fillable": false,
        "inForm": false,
        "inIndex": false
    }
]